%YAML 1.1
%TAG !u! tag:unity3d.com,2011:
--- !u!65 &1819728115733778758
BoxCollider:
  m_ObjectHideFlags: 0
  m_CorrespondingSourceObject: {fileID: 0}
  m_PrefabInstance: {fileID: 0}
  m_PrefabAsset: {fileID: 0}
  m_GameObject: {fileID: 7651385285419249229}
  m_Material: {fileID: 0}
  m_IsTrigger: 0
  m_Enabled: 1
  serializedVersion: 2
  m_Size: {x: 2.0048165, y: 2.0005789, z: 0.25032777}
  m_Center: {x: -0.0050756335, y: -0.0003173054, z: -0.00000014156106}
--- !u!1 &8386189694745888120
GameObject:
  m_ObjectHideFlags: 0
  m_CorrespondingSourceObject: {fileID: 0}
  m_PrefabInstance: {fileID: 0}
  m_PrefabAsset: {fileID: 0}
  serializedVersion: 6
  m_Component:
  - component: {fileID: 118411590302813201}
  m_Layer: 0
  m_Name: stone_floor_tile_2x2x0.2
  m_TagString: Untagged
  m_Icon: {fileID: 0}
  m_NavMeshLayer: 0
  m_StaticEditorFlags: 0
  m_IsActive: 1
--- !u!4 &118411590302813201
Transform:
  m_ObjectHideFlags: 0
  m_CorrespondingSourceObject: {fileID: 0}
  m_PrefabInstance: {fileID: 0}
  m_PrefabAsset: {fileID: 0}
  m_GameObject: {fileID: 8386189694745888120}
  m_LocalRotation: {x: -0.7071068, y: 0, z: 0, w: 0.7071068}
  m_LocalPosition: {x: 0, y: 0, z: 0}
  m_LocalScale: {x: 1, y: 1, z: 1}
  m_Children:
  - {fileID: 6662081381860269150}
  m_Father: {fileID: 0}
  m_RootOrder: 0
  m_LocalEulerAnglesHint: {x: -90.00001, y: 0, z: 0}
--- !u!1001 &1805595415268030276
PrefabInstance:
  m_ObjectHideFlags: 0
  serializedVersion: 2
  m_Modification:
    m_TransformParent: {fileID: 118411590302813201}
    m_Modifications:
    - target: {fileID: -6860895033569716450, guid: f6f245714511a1447b57da80e3d8064f,
        type: 3}
      propertyPath: m_Enabled
      value: 0
      objectReference: {fileID: 0}
    - target: {fileID: -4216859302048453862, guid: f6f245714511a1447b57da80e3d8064f,
        type: 3}
      propertyPath: m_LocalPosition.x
      value: 1
      objectReference: {fileID: 0}
    - target: {fileID: -4216859302048453862, guid: f6f245714511a1447b57da80e3d8064f,
        type: 3}
      propertyPath: m_LocalPosition.y
      value: -1
      objectReference: {fileID: 0}
    - target: {fileID: -4216859302048453862, guid: f6f245714511a1447b57da80e3d8064f,
        type: 3}
      propertyPath: m_LocalPosition.z
      value: 0.1
      objectReference: {fileID: 0}
    - target: {fileID: -4216859302048453862, guid: f6f245714511a1447b57da80e3d8064f,
        type: 3}
      propertyPath: m_LocalRotation.x
      value: -0
      objectReference: {fileID: 0}
    - target: {fileID: -4216859302048453862, guid: f6f245714511a1447b57da80e3d8064f,
        type: 3}
      propertyPath: m_LocalRotation.y
      value: -0
      objectReference: {fileID: 0}
    - target: {fileID: -4216859302048453862, guid: f6f245714511a1447b57da80e3d8064f,
        type: 3}
      propertyPath: m_LocalRotation.z
      value: -0
      objectReference: {fileID: 0}
    - target: {fileID: -4216859302048453862, guid: f6f245714511a1447b57da80e3d8064f,
        type: 3}
      propertyPath: m_LocalRotation.w
      value: 1
      objectReference: {fileID: 0}
    - target: {fileID: -4216859302048453862, guid: f6f245714511a1447b57da80e3d8064f,
        type: 3}
      propertyPath: m_RootOrder
      value: 0
      objectReference: {fileID: 0}
    - target: {fileID: -4216859302048453862, guid: f6f245714511a1447b57da80e3d8064f,
        type: 3}
      propertyPath: m_LocalEulerAnglesHint.x
      value: -90
      objectReference: {fileID: 0}
    - target: {fileID: -4216859302048453862, guid: f6f245714511a1447b57da80e3d8064f,
        type: 3}
      propertyPath: m_LocalEulerAnglesHint.y
      value: 0
      objectReference: {fileID: 0}
    - target: {fileID: -4216859302048453862, guid: f6f245714511a1447b57da80e3d8064f,
        type: 3}
      propertyPath: m_LocalEulerAnglesHint.z
      value: 0
      objectReference: {fileID: 0}
    - target: {fileID: -4216859302048453862, guid: f6f245714511a1447b57da80e3d8064f,
        type: 3}
      propertyPath: m_LocalScale.x
      value: 1
      objectReference: {fileID: 0}
    - target: {fileID: -4216859302048453862, guid: f6f245714511a1447b57da80e3d8064f,
        type: 3}
      propertyPath: m_LocalScale.y
      value: 1
      objectReference: {fileID: 0}
    - target: {fileID: -4216859302048453862, guid: f6f245714511a1447b57da80e3d8064f,
        type: 3}
      propertyPath: m_LocalScale.z
      value: 1
      objectReference: {fileID: 0}
    - target: {fileID: -1504981713932161579, guid: f6f245714511a1447b57da80e3d8064f,
        type: 3}
      propertyPath: m_Materials.Array.data[0]
      value: 
      objectReference: {fileID: 2100000, guid: 11024ab632a0564418678aa2b8aaeedc, type: 2}
    - target: {fileID: -927199367670048503, guid: f6f245714511a1447b57da80e3d8064f,
        type: 3}
      propertyPath: m_Name
      value: Floor_Modular
      objectReference: {fileID: 0}
    - target: {fileID: -927199367670048503, guid: f6f245714511a1447b57da80e3d8064f,
        type: 3}
      propertyPath: m_StaticEditorFlags
      value: 1
      objectReference: {fileID: 0}
    m_RemovedComponents: []
  m_SourcePrefab: {fileID: 100100000, guid: f6f245714511a1447b57da80e3d8064f, type: 3}
--- !u!1 &7651385285419249229 stripped
GameObject:
  m_CorrespondingSourceObject: {fileID: -927199367670048503, guid: f6f245714511a1447b57da80e3d8064f,
    type: 3}
  m_PrefabInstance: {fileID: 1805595415268030276}
  m_PrefabAsset: {fileID: 0}
--- !u!4 &6662081381860269150 stripped
Transform:
  m_CorrespondingSourceObject: {fileID: -4216859302048453862, guid: f6f245714511a1447b57da80e3d8064f,
    type: 3}
  m_PrefabInstance: {fileID: 1805595415268030276}
  m_PrefabAsset: {fileID: 0}
