%YAML 1.1
%TAG !u! tag:unity3d.com,2011:
--- !u!1001 &2620159931344825138
PrefabInstance:
  m_ObjectHideFlags: 0
  serializedVersion: 2
  m_Modification:
    m_TransformParent: {fileID: 0}
    m_Modifications:
    - target: {fileID: 118411590302813201, guid: aab3ce041916b76428fcec885c5f25da,
        type: 3}
      propertyPath: m_LocalPosition.x
      value: 0
      objectReference: {fileID: 0}
    - target: {fileID: 118411590302813201, guid: aab3ce041916b76428fcec885c5f25da,
        type: 3}
      propertyPath: m_LocalPosition.y
      value: 0
      objectReference: {fileID: 0}
    - target: {fileID: 118411590302813201, guid: aab3ce041916b76428fcec885c5f25da,
        type: 3}
      propertyPath: m_LocalPosition.z
      value: 0
      objectReference: {fileID: 0}
    - target: {fileID: 118411590302813201, guid: aab3ce041916b76428fcec885c5f25da,
        type: 3}
      propertyPath: m_LocalRotation.x
      value: -0.7071068
      objectReference: {fileID: 0}
    - target: {fileID: 118411590302813201, guid: aab3ce041916b76428fcec885c5f25da,
        type: 3}
      propertyPath: m_LocalRotation.y
      value: 0
      objectReference: {fileID: 0}
    - target: {fileID: 118411590302813201, guid: aab3ce041916b76428fcec885c5f25da,
        type: 3}
      propertyPath: m_LocalRotation.z
      value: -0
      objectReference: {fileID: 0}
    - target: {fileID: 118411590302813201, guid: aab3ce041916b76428fcec885c5f25da,
        type: 3}
      propertyPath: m_LocalRotation.w
      value: 0.7071068
      objectReference: {fileID: 0}
    - target: {fileID: 118411590302813201, guid: aab3ce041916b76428fcec885c5f25da,
        type: 3}
      propertyPath: m_RootOrder
      value: 0
      objectReference: {fileID: 0}
    - target: {fileID: 118411590302813201, guid: aab3ce041916b76428fcec885c5f25da,
        type: 3}
      propertyPath: m_LocalEulerAnglesHint.x
      value: 0
      objectReference: {fileID: 0}
    - target: {fileID: 118411590302813201, guid: aab3ce041916b76428fcec885c5f25da,
        type: 3}
      propertyPath: m_LocalEulerAnglesHint.y
      value: 0
      objectReference: {fileID: 0}
    - target: {fileID: 118411590302813201, guid: aab3ce041916b76428fcec885c5f25da,
        type: 3}
      propertyPath: m_LocalEulerAnglesHint.z
      value: 0
      objectReference: {fileID: 0}
    - target: {fileID: 4163568131660980314, guid: aab3ce041916b76428fcec885c5f25da,
        type: 3}
      propertyPath: m_Material
      value: 
      objectReference: {fileID: 13400000, guid: 767e7bbbc714fb7409d36b9f1b8ce82e,
        type: 2}
    - target: {fileID: 6662081381860269150, guid: aab3ce041916b76428fcec885c5f25da,
        type: 3}
      propertyPath: m_LocalScale.x
      value: 0.5
      objectReference: {fileID: 0}
    - target: {fileID: 6662081381860269150, guid: aab3ce041916b76428fcec885c5f25da,
        type: 3}
      propertyPath: m_LocalScale.y
      value: 0.5
      objectReference: {fileID: 0}
    - target: {fileID: 6662081381860269150, guid: aab3ce041916b76428fcec885c5f25da,
        type: 3}
      propertyPath: m_LocalScale.z
      value: 0.5
      objectReference: {fileID: 0}
    - target: {fileID: 6662081381860269150, guid: aab3ce041916b76428fcec885c5f25da,
        type: 3}
      propertyPath: m_LocalPosition.z
      value: 0.05
      objectReference: {fileID: 0}
    - target: {fileID: 6662081381860269150, guid: aab3ce041916b76428fcec885c5f25da,
        type: 3}
      propertyPath: m_LocalPosition.x
      value: 0.5
      objectReference: {fileID: 0}
    - target: {fileID: 6662081381860269150, guid: aab3ce041916b76428fcec885c5f25da,
        type: 3}
      propertyPath: m_LocalPosition.y
      value: -0.5
      objectReference: {fileID: 0}
    - target: {fileID: 8386189694745888120, guid: aab3ce041916b76428fcec885c5f25da,
        type: 3}
      propertyPath: m_Name
      value: stone_floor_tile_1x1x0.1
      objectReference: {fileID: 0}
    m_RemovedComponents: []
  m_SourcePrefab: {fileID: 100100000, guid: aab3ce041916b76428fcec885c5f25da, type: 3}
